bench/cuckatoo/Vcuckatoo_top.vcd
$version Generated by VerilatedVcd $end
$date Sun Jan 20 15:20:07 2019
 $end
$timescale   1ns $end

 $scope module TOP $end
  $var wire  1 "/ CLOCK $end
  $var wire  2 "3 counter [1:0] $end
  $var wire  1 "? done $end
  $var wire 64 "; read_data [63:0] $end
  $var wire  1 "0 reset_n $end
  $var wire 64 "= result [63:0] $end
  $var wire  8 "4 siphash_addr [7:0] $end
  $var wire  1 "5 siphash_cs $end
  $var wire 64 "9 siphash_read_data [63:0] $end
  $var wire  1 "2 siphash_reset_n $end
  $var wire  1 "6 siphash_we $end
  $var wire 64 "7 siphash_write_data [63:0] $end
  $var wire  6 "1 state [5:0] $end
  $scope module cuckatoo_top $end
   $var wire  8 "D ADDR_CTRL [7:0] $end
   $var wire  8 "@ ADDR_KEY0 [7:0] $end
   $var wire  8 "A ADDR_KEY1 [7:0] $end
   $var wire  8 "B ADDR_KEY2 [7:0] $end
   $var wire  8 "C ADDR_KEY3 [7:0] $end
   $var wire  8 "F ADDR_NONCE [7:0] $end
   $var wire  8 "E ADDR_STATUS [7:0] $end
   $var wire  8 "G ADDR_WORD0 [7:0] $end
   $var wire  1 "/ CLOCK $end
   $var wire  2 "3 counter [1:0] $end
   $var wire 64 d ctrl [63:0] $end
   $var wire  1 "? done $end
   $var wire 32 "I edges_address [31:0] $end
   $var wire  1 "J edges_cs $end
   $var wire 32 "I edges_data [31:0] $end
   $var wire  1 "J edges_oe $end
   $var wire  1 "J edges_we $end
   $var wire  6 $ next_when_ctrl_written [5:0] $end
   $var wire  6 # next_when_ready [5:0] $end
   $var wire 32 "I nodes_address [31:0] $end
   $var wire  1 "J nodes_cs $end
   $var wire 32 "I nodes_data [31:0] $end
   $var wire  1 "J nodes_oe $end
   $var wire  1 "J nodes_we $end
   $var wire 64 b nonce [63:0] $end
   $var wire 64 "; read_data [63:0] $end
   $var wire  1 "0 reset_n $end
   $var wire 64 "= result [63:0] $end
   $var wire  8 "4 siphash_addr [7:0] $end
   $var wire  1 "5 siphash_cs $end
   $var wire 64 "9 siphash_read_data [63:0] $end
   $var wire  1 "2 siphash_reset_n $end
   $var wire  1 "6 siphash_we $end
   $var wire 64 "7 siphash_write_data [63:0] $end
   $var wire  6 "1 state [5:0] $end
   $var wire  1 "H tb_error $end
   $var wire 33 % wait_counter [32:0] $end
   $scope module edges $end
    $var wire 32 "Y ADDR_WIDTH [31:0] $end
    $var wire 32 "Y DATA_WIDTH [31:0] $end
    $var wire 32 "K RAM_DEPTH [31:0] $end
    $var wire 32 "I address [31:0] $end
    $var wire  1 "/ clk $end
    $var wire  1 "J cs $end
    $var wire 32 "I data [31:0] $end
    $var wire 32 "] data_out [31:0] $end
    $var wire 32 "^ mem [31:0] $end
    $var wire 32 "_ mem(0) [31:0] $end
    $var wire  1 "J oe $end
    $var wire  1 ". oe_r $end
    $var wire  1 "J we $end
   $upscope $end
   $scope module hasher $end
    $var wire  8 "N ADDR_CONFIG [7:0] $end
    $var wire  8 "D ADDR_CTRL [7:0] $end
    $var wire  8 "@ ADDR_KEY0 [7:0] $end
    $var wire  8 "A ADDR_KEY1 [7:0] $end
    $var wire  8 "B ADDR_KEY2 [7:0] $end
    $var wire  8 "C ADDR_KEY3 [7:0] $end
    $var wire  8 "O ADDR_PARAM [7:0] $end
    $var wire  8 "E ADDR_STATUS [7:0] $end
    $var wire  8 "G ADDR_WORD0 [7:0] $end
    $var wire  8 "F ADDR_nonce [7:0] $end
    $var wire 32 "L CTRL_COMPRESS_BIT [31:0] $end
    $var wire 32 "M CTRL_FINALIZE_BIT [31:0] $end
    $var wire 32 "K CTRL_INIT_BIT [31:0] $end
    $var wire  4 "Q SIPHASH_DEFAULT_C [3:0] $end
    $var wire  4 "R SIPHASH_DEFAULT_D [3:0] $end
    $var wire 32 "P SIPHASH_SIZE_C [31:0] $end
    $var wire 32 "P SIPHASH_SIZE_D [31:0] $end
    $var wire 32 "K SIPHASH_START_C [31:0] $end
    $var wire 32 "P SIPHASH_START_D [31:0] $end
    $var wire 32 "K STATUS_READY_BIT [31:0] $end
    $var wire 32 "L STATUS_VALID_BIT [31:0] $end
    $var wire  8 "4 addr [7:0] $end
    $var wire  1 "/ clk $end
    $var wire  4 w core_c [3:0] $end
    $var wire  1 u core_compress $end
    $var wire  4 x core_d [3:0] $end
    $var wire  1 v core_finalize $end
    $var wire  1 t core_initalize $end
    $var wire 256 0 core_k [255:0] $end
    $var wire 64 p core_nonce [63:0] $end
    $var wire  1 y core_ready $end
    $var wire 64 z core_siphash_word [63:0] $end
    $var wire  1 | core_siphash_word_valid $end
    $var wire  1 "5 cs $end
    $var wire  3 ' ctrl_new [2:0] $end
    $var wire  3 f ctrl_reg [2:0] $end
    $var wire 64 h key0_reg [63:0] $end
    $var wire  1 ) key0_we $end
    $var wire 64 j key1_reg [63:0] $end
    $var wire  1 * key1_we $end
    $var wire 64 l key2_reg [63:0] $end
    $var wire  1 + key2_we $end
    $var wire 64 n key3_reg [63:0] $end
    $var wire  1 , key3_we $end
    $var wire 64 p nonce_reg [63:0] $end
    $var wire  1 - nonce_we $end
    $var wire  8 g param_reg [7:0] $end
    $var wire  1 ( param_we $end
    $var wire 64 "9 read_data [63:0] $end
    $var wire  1 "2 reset_n $end
    $var wire 64 . tmp_read_data [63:0] $end
    $var wire  1 "6 we $end
    $var wire 64 r word0_reg [63:0] $end
    $var wire 64 "7 write_data [63:0] $end
    $scope module core $end
     $var wire  3 "U CTRL_COMP_END [2:0] $end
     $var wire  3 "T CTRL_COMP_LOOP [2:0] $end
     $var wire  3 "X CTRL_FINAL0_END [2:0] $end
     $var wire  3 "V CTRL_FINAL0_LOOP [2:0] $end
     $var wire  3 "S CTRL_IDLE [2:0] $end
     $var wire  3 "U DP_COMP_END [2:0] $end
     $var wire  3 "T DP_COMP_START [2:0] $end
     $var wire  3 "V DP_FINAL0_START [2:0] $end
     $var wire  3 "S DP_INIT [2:0] $end
     $var wire  3 "W DP_SIPROUND [2:0] $end
     $var wire  1 "/ clk $end
     $var wire  1 u compress $end
     $var wire  4 w compression_rounds [3:0] $end
     $var wire  3 Q dp_mode [2:0] $end
     $var wire  1 P dp_update $end
     $var wire  4 x final_rounds [3:0] $end
     $var wire  1 v finalize $end
     $var wire  1 t initalize $end
     $var wire 256 0 key [255:0] $end
     $var wire  1 G loop_ctr_inc $end
     $var wire  4 E loop_ctr_new [3:0] $end
     $var wire  4 ") loop_ctr_reg [3:0] $end
     $var wire  1 H loop_ctr_rst $end
     $var wire  1 F loop_ctr_we $end
     $var wire 64 p nonce [63:0] $end
     $var wire 64 "' nonce_reg [63:0] $end
     $var wire  1 D nonce_we $end
     $var wire  1 y ready $end
     $var wire  1 I ready_new $end
     $var wire  1 y ready_reg $end
     $var wire  1 J ready_we $end
     $var wire  1 "2 reset_n $end
     $var wire  3 N siphash_ctrl_new [2:0] $end
     $var wire  3 ", siphash_ctrl_reg [2:0] $end
     $var wire  1 O siphash_ctrl_we $end
     $var wire  1 L siphash_valid_new $end
     $var wire  1 | siphash_valid_reg $end
     $var wire  1 M siphash_valid_we $end
     $var wire 64 z siphash_word [63:0] $end
     $var wire 64 z siphash_word0_reg [63:0] $end
     $var wire  1 K siphash_word0_we $end
     $var wire 64 "* siphash_word_new [63:0] $end
     $var wire  1 | siphash_word_valid $end
     $var wire 64 8 v0_new [63:0] $end
     $var wire 64 } v0_reg [63:0] $end
     $var wire  1 : v0_we $end
     $var wire 64 ; v1_new [63:0] $end
     $var wire 64 "! v1_reg [63:0] $end
     $var wire  1 = v1_we $end
     $var wire 64 > v2_new [63:0] $end
     $var wire 64 "# v2_reg [63:0] $end
     $var wire  1 @ v2_we $end
     $var wire 64 A v3_new [63:0] $end
     $var wire 64 "% v3_reg [63:0] $end
     $var wire  1 C v3_we $end
     $scope module datapath_update $end
      $var wire 64 R add_0_res [63:0] $end
      $var wire 64 T add_1_res [63:0] $end
      $var wire 64 V add_2_res [63:0] $end
      $var wire 64 X add_3_res [63:0] $end
      $var wire 64 Z v0_tmp [63:0] $end
      $var wire 64 \ v1_tmp [63:0] $end
      $var wire 64 ^ v2_tmp [63:0] $end
      $var wire 64 ` v3_tmp [63:0] $end
     $upscope $end
    $upscope $end
   $upscope $end
   $scope module nodes $end
    $var wire 32 "Y ADDR_WIDTH [31:0] $end
    $var wire 32 "Y DATA_WIDTH [31:0] $end
    $var wire 32 "K RAM_DEPTH [31:0] $end
    $var wire 32 "I address [31:0] $end
    $var wire  1 "/ clk $end
    $var wire  1 "J cs $end
    $var wire 32 "I data [31:0] $end
    $var wire 32 "Z data_out [31:0] $end
    $var wire 32 "[ mem [31:0] $end
    $var wire 32 "\ mem(0) [31:0] $end
    $var wire  1 "J oe $end
    $var wire  1 "- oe_r $end
    $var wire  1 "J we $end
   $upscope $end
  $upscope $end
 $upscope $end
$enddefinitions $end


#0
b001011 #
b001011 $
b000000000000000000000000000000000 %
b000 '
0(
0)
0*
0+
0,
0-
b0000000000000000000000000000000000000000000000000000000000000000 .
b0000000000000000000000000000000000000000000000000000000000000000000000000000000000000000000000000000000000000000000000000000000000000000000000000000000000000000000000000000000000000000000000000000000000000000000000000000000000000000000000000000000000000000 0
b0000000000000000000000000000000000000000000000000000000000000000 8
0:
b0000000000000000000000000000000000000000000000000000000000000000 ;
0=
b0000000000000000000000000000000000000000000000000000000000000000 >
0@
b0000000000000000000000000000000000000000000000000000000000000000 A
0C
0D
b0000 E
0F
0G
0H
0I
0J
0K
0L
0M
b000 N
0O
0P
b000 Q
b0000000000000000000000000000000000000000000000000000000000000000 R
b0000000000000000000000000000000000000000000000000000000000000000 T
b0000000000000000000000000000000000000000000000000000000000000000 V
b0000000000000000000000000000000000000000000000000000000000000000 X
b0000000000000000000000000000000000000000000000000000000000000000 Z
b0000000000000000000000000000000000000000000000000000000000000000 \
b0000000000000000000000000000000000000000000000000000000000000000 ^
b0000000000000000000000000000000000000000000000000000000000000000 `
b0000000000000000000000000000000000000000000000000000000000000000 b
b0000000000000000000000000000000000000000000000000000000000000000 d
b000 f
b01000010 g
b0000000000000000000000000000000000000000000000000000000000000000 h
b0000000000000000000000000000000000000000000000000000000000000000 j
b0000000000000000000000000000000000000000000000000000000000000000 l
b0000000000000000000000000000000000000000000000000000000000000000 n
b0000000000000000000000000000000000000000000000000000000000000000 p
b0000000000000000000000000000000000000000000000000000000000000000 r
0t
0u
0v
b0010 w
b0100 x
1y
b0000000000000000000000000000000000000000000000000000000000000000 z
0|
b0000000000000000000000000000000000000000000000000000000000000000 }
b0000000000000000000000000000000000000000000000000000000000000000 "!
b0000000000000000000000000000000000000000000000000000000000000000 "#
b0000000000000000000000000000000000000000000000000000000000000000 "%
b0000000000000000000000000000000000000000000000000000000000000000 "'
b0000 ")
b0000000000000000000000000000000000000000000000000000000000000000 "*
b000 ",
0"-
0".
1"/
1"0
b000000 "1
0"2
b01 "3
b00000000 "4
0"5
0"6
b0000000000000000000000000000000000000000000000000000000000000000 "7
b0000000000000000000000000000000000000000000000000000000000000000 "9
b0000000000000000000000000000000000000000000000000000000000000000 ";
b0000000000000000000000000000000000000000000000000000000000000000 "=
0"?
b00010000 "@
b00010001 "A
b00010010 "B
b00010011 "C
b00001000 "D
b00001001 "E
b00011000 "F
b00100000 "G
0"H
b00000000000000000000000000000000 "I
0"J
b00000000000000000000000000000000 "K
b00000000000000000000000000000001 "L
b00000000000000000000000000000010 "M
b00001010 "N
b00001011 "O
b00000000000000000000000000000100 "P
b0010 "Q
b0100 "R
b000 "S
b001 "T
b010 "U
b011 "V
b101 "W
b100 "X
b00000000000000000000000000100000 "Y
b00000000000000000000000000000000 "Z
b00000000000000000000000000000000 "[
b00000000000000000000000000000000 "\
b00000000000000000000000000000000 "]
b00000000000000000000000000000000 "^
b00000000000000000000000000000000 "_
#1
0"/
#2
1"/
b000001 "1
1"2
b00 "3
#3
0"/
#4
1)
1"/
b01 "3
b00010000 "4
1"5
1"6
b0000000000000000000000000000000000000000000000000000000000000001 "7
#5
0"/
#6
0)
b0000000000000000000000000000000000000000000000000000000000000000000000000000000000000000000000000000000000000000000000000000000000000000000000000000000000000000000000000000000000000000000000000000000000000000000000000000000000000000000000000000000000000001 0
b0000000000000000000000000000000000000000000000000000000000000001 h
1"/
b000010 "1
b00 "3
0"5
0"6
#7
0"/
#8
1*
1"/
b01 "3
b00010001 "4
1"5
1"6
b0000000000000000000000000000000000000000000000000000000000000010 "7
#9
0"/
#10
0*
b0000000000000000000000000000000000000000000000000000000000000000000000000000000000000000000000000000000000000000000000000000000000000000000000000000000000000000000000000000000000000000000000100000000000000000000000000000000000000000000000000000000000000001 0
b0000000000000000000000000000000000000000000000000000000000000010 j
1"/
b000011 "1
b00 "3
0"5
0"6
#11
0"/
#12
1+
1"/
b01 "3
b00010010 "4
1"5
1"6
b0000000000000000000000000000000000000000000000000000000000000011 "7
#13
0"/
#14
0+
b0000000000000000000000000000000000000000000000000000000000000000000000000000000000000000000000000000000000000000000000000000001100000000000000000000000000000000000000000000000000000000000000100000000000000000000000000000000000000000000000000000000000000001 0
b0000000000000000000000000000000000000000000000000000000000000011 l
1"/
b000100 "1
b00 "3
0"5
0"6
#15
0"/
#16
b000111 #
b000110 $
1,
b0000000000000000000000000000000000000000000000000000000001101111 b
b0000000000000000000000000000000000000000000000000000000000000001 d
1"/
b01 "3
b00010011 "4
1"5
1"6
b0000000000000000000000000000000000000000000000000000000000000100 "7
#17
0"/
#18
0,
b0000000000000000000000000000000000000000000000000000000000000100000000000000000000000000000000000000000000000000000000000000001100000000000000000000000000000000000000000000000000000000000000100000000000000000000000000000000000000000000000000000000000000001 0
b0000000000000000000000000000000000000000000000000000000000000100 n
1"/
b000101 "1
b00 "3
0"5
0"6
#19
0"/
#20
b001 '
1"/
b01 "3
b00001000 "4
1"5
1"6
b0000000000000000000000000000000000000000000000000000000000000001 "7
#21
0"/
#22
b000 '
b0000000000000000000000000000000000000000000000000000000000000001 8
1:
b0000000000000000000000000000000000000000000000000000000000000010 ;
1=
b0000000000000000000000000000000000000000000000000000000000000011 >
1@
b0000000000000000000000000000000000000000000000000000000000000100 A
1C
1M
1P
b001 f
1t
1"/
b000110 "1
b00 "3
0"5
0"6
#23
0"/
#24
b0000000000000000000000000000000000000000000000000000000000000001 .
b0000000000000000000000000000000000000000000000000000000000000000 8
0:
b0000000000000000000000000000000000000000000000000000000000000000 ;
0=
b0000000000000000000000000000000000000000000000000000000000000000 >
0@
b0000000000000000000000000000000000000000000000000000000000000000 A
0C
0M
0P
b000 f
0t
b0000000000000000000000000000000000000000000000000000000000000001 }
b0000000000000000000000000000000000000000000000000000000000000010 "!
b0000000000000000000000000000000000000000000000000000000000000011 "#
b0000000000000000000000000000000000000000000000000000000000000100 "%
b0000000000000000000000000000000000000000000000000000000000000100 "*
1"/
b01 "3
b00001001 "4
1"5
b0000000000000000000000000000000000000000000000000000000000000001 "9
#25
0"/
#26
b0000000000000000000000000000000000000000000000000000000000000000 .
1"/
b00 "3
0"5
b0000000000000000000000000000000000000000000000000000000000000000 "9
b0000000000000000000000000000000000000000000000000000000000000001 ";
#27
0"/
#28
b0000000000000000000000000000000000000000000000000000000000000001 .
1"/
b000111 "1
1"5
b0000000000000000000000000000000000000000000000000000000000000001 "9
#29
0"/
#30
1-
b0000000000000000000000000000000000000000000000000000000000000000 .
1"/
b01 "3
b00011000 "4
1"6
b0000000000000000000000000000000000000000000000000000000001101111 "7
b0000000000000000000000000000000000000000000000000000000000000000 "9
#31
0"/
#32
0-
b0000000000000000000000000000000000000000000000000000000001101111 p
1"/
b001000 "1
b00 "3
0"5
0"6
#33
0"/
#34
b001001 #
b0000000000000000000000000000000000000000000000000000000000000010 d
1"/
b000101 "1
#35
0"/
#36
b010 '
1"/
b01 "3
b00001000 "4
1"5
1"6
b0000000000000000000000000000000000000000000000000000000000000010 "7
#37
0"/
#38
b000 '
b0000000000000000000000000000000000000000000000000000000001101011 A
1C
1D
1F
1H
1J
b001 N
1O
1P
b001 Q
b010 f
1u
1"/
b000110 "1
b00 "3
0"5
0"6
#39
0"/
#40
b0000000000000000000000000000001100000000011010110000000001101110 8
1:
b0000000000000000000000000000000010000000000001100100000001110001 ;
1=
b0000000000000000010000000111000100000000000000000000000000000000 >
1@
b0000000000000000000011010110001100001101101010110000000001101110 A
0D
b0001 E
1G
0H
0J
b000 N
0O
b101 Q
b0000000000000000000000000000000000000000000000000000000000000011 R
b0000000000000000000000000000000000000000000000000000000001101110 T
b0000000000000000000000000000000000000000000000000100000001110001 V
b0000000000000000000000000000001100000000011010110000000001101110 X
b0000000000000000000000000000001100000000000000000000000000000000 Z
b0000000000000000000000000000000000000000000000000100000000000011 \
b0000000000000000000000000000000000000000000000000000000001101110 ^
b0000000000000000000000000000000000000000011010110000000001101110 `
b000 f
0u
0y
b0000000000000000000000000000000000000000000000000000000001101011 "%
b0000000000000000000000000000000000000000000000000000000001101111 "'
b0000000000000000000000000000000000000000000000000000000001101011 "*
b001 ",
1"/
b001001 "1
b00001001 "4
1"5
#41
0"/
#42
b001010 #
b1000110111010100100000010101111000001101110001010000000001110001 8
b0010000000000110110011010010100110010111100101000110000101001101 ;
b0101011000101010011000010100110100000000000000000101110111010111 >
b1000001000110101001110011111111000000000000001001010110000011001 A
b0010 E
b010 N
1O
b0000000000000000000000000000001110000000011100010100000011011111 R
b0000000000000000010011011101010000001101101010110000000001101110 T
b0000000000000000010111011101011101010110001010100110000101001101 V
b1000110111010100100000010101111000001101110001010000000001110001 X
b1000000001110001010000001101111100000000000000000000000000000011 Z
b0000000000000000000100000000001101001000011111110110000011011111 \
b0000000000000000010011011101010000001101101010110000000001101110 ^
b0000110101100011010000000111111100001101110001010000000001101110 `
b0000000000000000000000000000000000000000000000000000000000000100 d
b0000000000000000000000000000001100000000011010110000000001101110 }
b0000000000000000000000000000000010000000000001100100000001110001 "!
b0000000000000000010000000111000100000000000000000000000000000000 "#
b0000000000000000000011010110001100001101101010110000000001101110 "%
b0001 ")
b0000000000000000010011010001000110001101110001100100000001110001 "*
1"/
b000101 "1
b0000000000000000000000000000000000000000000000000000000000000000 ";
#43
0"/
#44
b100 '
b1000110111010100100000010101111000001101110001010000000000011110 8
b0000000000000000000000000000000000000000000000000000000000000000 ;
0=
b0000000000000000000000000000000000000000000000000000000000000000 >
0@
b0000000000000000000000000000000000000000000000000000000000000000 A
0C
b0000 E
0F
0G
1I
1J
b000 N
b010 Q
b1000110111010100100000010101111000001101110001010000000001110001 }
b0010000000000110110011010010100110010111100101000110000101001101 "!
b0101011000101010011000010100110100000000000000000101110111010111 "#
b1000001000110101001110011111111000000000000001001010110000011001 "%
b0010 ")
b0111100111001101000101001100010010011010010101011001000011110010 "*
b010 ",
1"/
b01 "3
b00001000 "4
1"6
b0000000000000000000000000000000000000000000000000000000000000100 "7
#45
0"/
#46
b000 '
b0000000000000000000000000000000000000000000000000000000000000000 8
0:
b0101011000101010011000010100110100000000000000000101110100101000 >
1@
1F
1H
0I
b011 N
b011 Q
b100 f
1v
1y
b1000110111010100100000010101111000001101110001010000000000011110 }
b0111100111001101000101001100010010011010010101011001000010011101 "*
b000 ",
1"/
b000110 "1
b00 "3
0"5
0"6
#47
0"/
#48
b1000011011111010111111001011101101011001111101111101100111111011 8
1:
b1011010000110100010001010010000110100011101000110010011001010000 ;
1=
b0010100101110101110011101010110001001100110111100001011111000000 >
b1110111100001111011111110010101000110111011010111110110111001000 A
1C
b0001 E
1G
0H
0J
b000 N
0O
b101 Q
b1010110111011011010011101000011110100101010110010110000101101011 R
b1101100001011111100110110100101100000000000001010000100101000001 T
b0100110011011110000101111100000000101001011101011100111010101100 V
b1000011011111010111111001011101101011001111101111101100111111011 X
b1010010101011001011000010110101110101101110110110100111010000111 Z
b0111010001111110011111000111010100101001011100001100010101101011 \
b1101100001011111100110110100101100000000000001010000100101000001 ^
b1110000110100001100110110100111110101100000111001000101101110100 `
b000 f
0v
0y
b0101011000101010011000010100110100000000000000000101110100101000 "#
b0000 ")
b0111100111001101000101001100010010011010010101011001000001100010 "*
b011 ",
1"/
b01 "3
b00001001 "4
1"5
#49
0"/
#50
b0110010101001010011110110000100010100100101100100010110001100011 8
b0010011101000001111100011101110100110000000000000111101101000011 ;
b0001110110011011000111000101010111001100000100001100001101111111 >
b0011001011100111010010110101010111110100010111101101100110001100 A
b0010 E
b0011101100101111010000011101110011111101100110110000000001001011 R
b0001100010000101010011011101011010000100010010100000010110001000 T
b1100110000010000110000110111111100011101100110110001110001010101 V
b0110010101001010011110110000100010100100101100100010110001100011 X
b1111110110011011000000000100101100111011001011110100000111011100 Z
b1011001110001011011101011010100010011001010100010001011011001101 \
b0001100010000101010011011101011010000100010010100000010110001000 ^
b0110011110101111011110101011110101101001100000101110101010000111 `
b1000011011111010111111001011101101011001111101111101100111111011 }
b1011010000110100010001010010000110100011101000110010011001010000 "!
b0010100101110101110011101010110001001100110111100001011111000000 "#
b1110111100001111011111110010101000110111011010111110110111001000 "%
b0001 ")
b1111010010110100000010000001110010000001111000010000010110100011 "*
1"/
b00 "3
0"5
#51
0"/
#52
b1111000010001010001110111001101110100110011100000001110011010001 8
b1001011011110001100001010010010000011010110101110000010100110110 ;
b1001110001001010011000000101100100000011001110100011001010010001 >
b1000111000101001000001111110111001011011111100110110011000100011 A
b0011 E
b1000110010001100011011001110010111010100101100101010011110100110 R
b0101000010000010011001111010101111000000011011111001110100001011 T
b0000001100111010001100101001000110011100010010100110000001011001 V
b1111000010001010001110111001101110100110011100000001110011010001 X
b1101010010110010101001111010011010001100100011000110110011100101 Z
b1011001010110111110010101110010111011011110110101100001101001110 \
b0101000010000010011001111010101111000000011011111001110100001011 ^
b0001101111010111100100111111010100011001111000111010111111101100 `
b0110010101001010011110110000100010100100101100100010110001100011 }
b0010011101000001111100011101110100110000000000000111101101000011 "!
b0001110110011011000111000101010111001100000100001100001101111111 "#
b0011001011100111010010110101010111110100010111101101100110001100 "%
b0010 ")
b0110110101110111110111011101010110101100111111000100110111010011 "*
1"/
b01 "3
1"5
#53
0"/
#54
b1110111011100100010101011011101111000000100010011101011101011100 8
b0110010110011000111011111110111101100000101111001110011000110011 ;
b1000000100001111100010011000110111100010010100101010110000101100 >
b1001100001100011011101000111100100010011001011000110010011111010 A
b0100 E
b100 N
1O
b1000011101111011110000001011111111000001010001110010001000000111 R
b0010101001110011011010000100011101011111001011011001100010110100 T
b1110001001010010101011000010110010000001000011111000100110001101 V
b1110111011100100010101011011101111000000100010011101011101011100 X
b1100000101000111001000100000011110000111011110111100000010111111 Z
b1011011111011111010000111110010100100001111000011111000011011001 \
b0010101001110011011010000100011101011111001011011001100010110100 ^
b0010110110011101001100111011010000111001000011100001011010011101 `
b1111000010001010001110111001101110100110011100000001110011010001 }
b1001011011110001100001010010010000011010110101110000010100110110 "!
b1001110001001010011000000101100100000011001110100011001010010001 "#
b1000111000101001000001111110111001011011111100110110011000100011 "%
b0011 ")
b0111010000011000110110010000100011100100011011100100110101010101 "*
1"/
b00 "3
0"5
#55
0"/
#56
b0000000000000000000000000000000000000000000000000000000000000000 8
0:
b0000000000000000000000000000000000000000000000000000000000000000 ;
0=
b0000000000000000000000000000000000000000000000000000000000000000 >
0@
b0000000000000000000000000000000000000000000000000000000000000000 A
0C
b0000 E
0F
0G
1I
1J
1K
1L
1M
b000 N
0P
b000 Q
b1110111011100100010101011011101111000000100010011101011101011100 }
b0110010110011000111011111110111101100000101111001110011000110011 "!
b1000000100001111100010011000110111100010010100101010110000101100 "#
b1001100001100011011101000111100100010011001011000110010011111010 "%
b0100 ")
b1001001000010000010001111010000001010001010010111111100110111001 "*
b100 ",
1"/
b01 "3
1"5
#57
0"/
#58
0I
0J
0K
0L
0M
0O
1y
b1001001000010000010001111010000001010001010010111111100110111001 z
1|
b000 ",
1"/
b00 "3
0"5
#59
0"/
#60
b0000000000000000000000000000000000000000000000000000000000000011 .
b1001001000010000010001111010000001010001010010111111100110111001 r
1"/
b01 "3
1"5
b0000000000000000000000000000000000000000000000000000000000000011 "9
#61
0"/
#62
b0000000000000000000000000000000000000000000000000000000000000000 .
1"/
b00 "3
0"5
b0000000000000000000000000000000000000000000000000000000000000000 "9
b0000000000000000000000000000000000000000000000000000000000000011 ";
#63
0"/
#64
b0000000000000000000000000000000000000000000000000000000000000011 .
1"/
b001010 "1
1"5
b0000000000000000000000000000000000000000000000000000000000000011 "9
#65
0"/
#66
b1001001000010000010001111010000001010001010010111111100110111001 .
1"/
b01 "3
b00100000 "4
b1001001000010000010001111010000001010001010010111111100110111001 "9
#67
0"/
#68
b0000000000000000000000000000000000000000000000000000000000000000 .
1"/
b001011 "1
b00 "3
0"5
b0000000000000000000000000000000000000000000000000000000000000000 "9
b1001001000010000010001111010000001010001010010111111100110111001 ";
#69
0"/
#70
1"/
b1001001000010000010001111010000001010001010010111111100110111001 "=
1"?
